{
  "name": "Image reconstruction",
  "fws": [
    {
      "fw_id": 0,
      "name": "Transfer the input files",
      "spec": {
        "_tasks": [
          {
            "_fw_name": "FileTransferTask",
            "files": ["piece-1.png", "piece-2.png"],
            "dest": "/tmp",
            "mode": "copy"
          }
        ]
      }
    },
    {
      "fw_id": 1,
      "name": "Rotate 90 degrees anti-clockwise",
      "spec": {
        "_tasks": [
          {
            "_fw_name": "CommandLineTask",
            "inputs": ["rotation angle", "piece 2"],
            "outputs": ["top left"],
            "command_spec": {
                "command": ["convert", "-rotate"],
                "rotation angle": {
                    "source": {
                        "type": "data",
                        "value": -90
                    }
                },
                "top left": {
                    "target": {
                        "type": "path",
                        "value": "/tmp"
                    }
                },
                "piece 2": {
                    "source": "piece 2"
                }
            }
          }
        ],
        "piece 2": {
            "type": "path",
            "value": "/tmp/piece-2.png"
        }
      }
    },
    {
      "fw_id": 2,
      "name": "Flip vertically",
      "spec": {
        "_tasks": [
          {
            "_fw_name": "CommandLineTask",
            "inputs": ["piece 1"],
            "outputs": ["bottom right"],
            "command_spec": {
                "command": ["convert", "-flip"],
                "bottom right": {
                    "target": {
                        "type": "path",
                        "value": "/tmp"
                    }
                },
                "piece 1": {
                    "source": "piece 1"
                }
            }
          }
        ],
        "piece 1": {
            "type": "path",
            "value": "/tmp/piece-1.png"
        }
      }
    },
    {
      "fw_id": 3,
      "name": "Flop horizontally",
      "spec": {
        "_tasks": [
          {
            "_fw_name": "CommandLineTask",
            "inputs": ["top left"],
            "outputs": ["top right"],
            "command_spec": {
                "command": ["convert", "-flop"],
                "top right": {
                    "target": {
                        "type": "path",
                        "value": "/tmp"
                    }
                },
                "top left": {
                    "source": "top left"
                }
            }
          }
        ]
      }
    },
    {
      "fw_id": 4,
      "name": "Flop horizontally",
      "spec": {
        "_tasks": [
          {
            "_fw_name": "CommandLineTask",
            "inputs": ["bottom right"],
            "outputs": ["bottom left"],
            "command_spec": {
                "command": ["convert", "-flop"],
                "bottom left": {
                    "target": {
                        "type": "path",
                        "value": "/tmp"
                    }
                },
                "bottom right": {
                    "source": "bottom right"
                }
            }
          }
        ]
      }
    },
    {
      "fw_id": 5,
      "name": "Put the four pieces together",
      "spec": {
        "_tasks": [
          {
            "_fw_name": "CommandLineTask",
            "inputs": ["top left", "top right", "bottom left", "bottom right"],
            "outputs": ["montaged image"],
            "command_spec": {
                "command": ["montage", "-mode", "concatenate", "-tile", "2x2"],
                "top left": {
                    "source": "top left"
                },
                "top right": {
                    "source": "top right"
                },
                "bottom left": {
                    "source": "bottom left"
                },
                "bottom right": {
                    "source": "bottom right"
                },
                "montaged image": {
                    "target": {
                        "type": "path",
                        "value": "/tmp"
                    }
                }
            }
          }
        ]
      }
    }
  ],
  "links": {"0": [1, 2], "1": [3, 5], "2": [4, 5], "3": [5], "4": [5], "5": []},
  "metadata": {}
}
